{
    "settings": {
        "index": {
            "analysis": {
                "analyzer": {
                    "pt": {
                        "type": "custom",
                        "tokenizer": "standard",
                        "filter": [
                            "lowercase",
                            "snowball",
                            "asciifolding",
                            "synonym"
                        ]
                    }
                },
                "filter": {
                    "synonym": {
                        "type": "synonym",
                        "ignore_case": "true",
                        "synonyms_path": "analysis/synonym.txt"
                    }
                }
            }
        }
    },
    "mappings": {
        "all": {
            "index_analyzer": "pt",
            "search_analyzer": "pt",
            "properties": {
                "title": {
                    "type": "string",
                    "index": "analyzed",
                    "analyzer": "pt"
                },
                "description": {
                    "type": "string",
                    "index": "analyzed",
                    "analyzer": "pt"
                },
                "store": {
                    "type": "string",
                    "index": "not_analyzed",
                },
                "available": {
                    "type": "boolean"
                },
                "category": {
                    "type": "string"
                },
                "thumb": {
                  "type": "string"
                },
                "images": {
                    "type": "string"
                },
                "last_update": {
                  "type": "date",
                  "format": "dateOptionalTime"
                },
                "preco": {
                    "properties": {
                        "avista": {
                            "type": "float"
                        },
                        "avistaDesconto": {
                            "type": "float"
                        },
                        "date": {
                          "type": "date",
                          "format": "dateOptionalTime"
                        },
                        "de": {
                            "type": "float"
                        },
                        "parcelamento": {
                            "type": "string"
                        },
                        "por": {
                            "type": "float"
                        }
                    }
                }
            }
        }
    }
}
