{
  "settings": {
    "index": {
      "analysis": {
        "analyzer" : {
          "pt": {
            "type": "custom"
            "tokenizer": "standard",
            "filter": [
              "asciifolding",
              "lowercase"
            ]
          }
        }
      }
    }
  }
}
