{
  "es": {
    "config": {
      "server": {
        "host" : "162.243.41.230",
        "port" : 9200
      }
    },
    "index": {
      "product": {
        "_index" : "products",
        "_type" : "all"
      }     
    }
  }
}
